simulate.vcd
$comment Generated by nMigen $end
$date 2019-12-29 15:46:33.578386 $end
$timescale 100 ps $end
$scope module top $end
$var wire 8 0 Din $end
$scope module core $end
$var wire 8 1 src8_1 $end
$var wire 8 2 src8_2 $end
$var wire 16 3 src16 $end
$var wire 16 4 incdec16 $end
$var wire 16 5 end_instr_addr $end
$var wire 1 6 end_instr_flag $end
$var wire 8 7 alu8 $end
$var wire 1 8 update_flag $end
$var wire 1 9 carry $end
$var wire 1 a overflow $end
$var wire 1 b negative $end
$var wire 1 c zero $end
$var wire 1 d half_carry $end
$var wire 1 e incdec16_dir $end
$var wire 7 f incdec16_write $end
$var string 1 10 src8_1_select $end
$var string 1 11 src8_2_select $end
$var wire 16 12 alu8_write $end
$var string 1 13 alu_function $end
$var wire 8 14 a $end
$var wire 8 15 b $end
$var wire 8 16 x $end
$var wire 16 17 sp $end
$var wire 16 18 pc $end
$var wire 8 19 tmp8 $end
$var wire 16 1a tmp16 $end
$var wire 8 1b Dout $end
$var wire 16 1c Addr $end
$var wire 1 1d RW $end
$var wire 2 1e reset_state $end
$var wire 8 1f ccr $end
$var wire 4 20 cycle $end
$var string 1 21 instr $end
$var wire 1 22 ph1_clk $end
$var wire 1 23 Rst $end
$upscope $end
$upscope $end
$enddefinitions $end
#0
$dumpvars
b11111111 0
b0 1
b0 2
b0 3
b1 4
b0 5
06
b0 7
08
09
0a
0b
1c
0d
0e
b0 f
sNONE/0 10
sNONE/0 11
b0 12
sNONE/0 13
b0 14
b0 15
b0 16
b0 17
b0 18
b0 19
b0 1a
b0 1b
b0 1c
11d
b0 1e
b0 1f
b0 20
s0 21
022
023
$end
#5
122
b1 1e
b1111111111111110 1c
b1111111111111111 4
b10000 0
#10
022
#15
122
b10 1e
b10000 19
b1111111111111111 1c
b1000000010000 5
16
b0 4
b0 0
b1000000000000 5
#20
022
#25
122
b11 1e
b1000000000000 1c
b11000000 1f
b1000000000000 18
b0 5
b1000000000001 4
b1000 f
b10000110 0
b1000000000001 5
#30
022
#35
122
sLDA_A_IMM/134 21
b1000000000001 1c
b1000000000001 18
b1 20
b1000000000010 4
b1 0
b1000000000010 5
#40
022
#45
122
b1 14
b1000000000010 1c
b1000000000010 18
b0 20
123
b1000000000011 4
b11000110 0
b1000000000011 5
#50
022
#55
122
b0 1e
sLDA_B_IMM/198 21
b0 1c
b1000000000011 18
023
b0 5
06
b1 4
b0 f
b11111111 0
#60
022
#65
122
b1 1e
b1111111111111110 1c
b1111111111111111 4
b10000 0
#70
022
#75
122
b10 1e
b1111111111111111 1c
b1000000010000 5
16
b0 4
b0 0
b1000000000000 5
#80
022
#85
122
b11 1e
b1000000000000 1c
b1000000000000 18
b0 5
b1000000000001 4
b1000 f
b10000110 0
b1000000000001 5
#90
022
#95
122
sLDA_A_IMM/134 21
b1000000000001 1c
b1000000000001 18
b1 20
b1000000000010 4
b1 0
b1000000000010 5
#100
022
#105
122
b1000000000010 1c
b1000000000010 18
b0 20
b1000000000011 4
b11000110 0
b1000000000011 5
#109
022
#114
122
sLDA_B_IMM/198 21
b1000000000011 1c
b1000000000011 18
b1 20
b1000000000100 4
b1 0
b1000000000100 5
#119
022
#124
122
b1000000000100 1c
b1000000000100 18
b0 20
b1 15
b1000000000101 4
b10001 0
b1000000000101 5
#129
022
#134
122
sCBA/17 21
b1000000000101 1c
b1000000000101 18
b1 20
b11011 0
sSUB/2 13
sA/1 10
b1000000000110 4
sB/2 11
b0 f
18
b1 2
b1 1
#139
022
#144
122
b11000100 1f
b0 20
b1000000000110 5
sNONE/0 13
sNONE/0 10
sNONE/0 11
b1000 f
08
b0 2
b0 1
#149
022
#154
122
sABA/27 21
b1000000000110 1c
b1000000000110 18
b1 20
b1111110 0
sADD/1 13
sA/1 10
b10 12
b1000000000111 4
sB/2 11
b0 f
18
b1 2
b1 1
b10 7
0c
#159
022
#165
122
b11000000 1f
b10 14
b0 20
b1000000000111 5
sNONE/0 13
sNONE/0 10
b10 1
b0 12
sNONE/0 11
b1000 f
08
b0 2
b0 1
b0 7
1c
#170
022
#175
122
sJMP_EXT/126 21
b1000000000111 1c
b1000000000111 18
b1 20
b0 5
b10000 0
b1000000001000 4
06
b101000 f
#180
022
#185
122
b1000000001000 1c
b1000000001000 18
b10 20
b1000000010000 5
b100 0
b1000000001001 4
16
b0 f
b1000000000100 5
#190
022
#195
122
b1000000000100 1c
b1000000000100 18
b0 20
b1000000001001 5
b10001 0
b1000000000101 4
b1000 f
b1000000000101 5
#200
022
#205
122
sCBA/17 21
b1000000000101 1c
b1000000000101 18
b1 20
b11011 0
sSUB/2 13
sA/1 10
b1000000000110 4
sB/2 11
b0 f
18
b1 2
b10 1
b1 7
0c
#210
022
#215
122
b0 20
b1000000000110 5
sNONE/0 13
sNONE/0 10
sNONE/0 11
b1000 f
08
b0 2
b0 1
b0 7
1c
#220
022
#225
122
sABA/27 21
b1000000000110 1c
b1000000000110 18
b1 20
b1111110 0
sADD/1 13
sA/1 10
b10 12
b1000000000111 4
sB/2 11
b0 f
18
b1 2
b10 1
b11 7
0c
#230
022
#235
122
b11 14
b0 20
b1000000000111 5
sNONE/0 13
sNONE/0 10
b11 1
b0 12
sNONE/0 11
b1000 f
08
b0 2
b0 1
b0 7
1c
#240
022
#245
122
sJMP_EXT/126 21
b1000000000111 1c
b1000000000111 18
b1 20
b0 5
b10000 0
b1000000001000 4
06
b101000 f
#250
022
#255
122
b1000000001000 1c
b1000000001000 18
b10 20
b1000000010000 5
b100 0
b1000000001001 4
16
b0 f
b1000000000100 5
#260
022
#265
122
b1000000000100 1c
b1000000000100 18
b0 20
b1000000001001 5
b10001 0
b1000000000101 4
b1000 f
b1000000000101 5
#270
022
#275
122
sCBA/17 21
b1000000000101 1c
b1000000000101 18
b1 20
b11011 0
sSUB/2 13
sA/1 10
b1000000000110 4
sB/2 11
b0 f
18
b1 2
b11 1
b10 7
0c
#280
022
#285
122
b0 20
b1000000000110 5
sNONE/0 13
sNONE/0 10
sNONE/0 11
b1000 f
08
b0 2
b0 1
b0 7
1c
#290
022
#295
122
sABA/27 21
b1000000000110 1c
b1000000000110 18
b1 20
b1111110 0
sADD/1 13
sA/1 10
b10 12
b1000000000111 4
sB/2 11
b0 f
18
b1 2
b11 1
b100 7
0c
#300
022
#305
122
b100 14
b0 20
b1000000000111 5
sNONE/0 13
sNONE/0 10
b100 1
b0 12
sNONE/0 11
b1000 f
08
b0 2
b0 1
b0 7
1c
#310
022
#315
122
sJMP_EXT/126 21
b1000000000111 1c
b1000000000111 18
b1 20
b0 5
b10000 0
b1000000001000 4
06
b101000 f
#320
022
#325
122
b1000000001000 1c
b1000000001000 18
b10 20
b1000000010000 5
b100 0
b1000000001001 4
16
b0 f
b1000000000100 5
#330
022
#335
122
b1000000000100 1c
b1000000000100 18
b0 20
b1000000001001 5
b10001 0
b1000000000101 4
b1000 f
b1000000000101 5
#340
022
#345
122
sCBA/17 21
b1000000000101 1c
b1000000000101 18
b1 20
b11011 0
sSUB/2 13
sA/1 10
b1000000000110 4
sB/2 11
b0 f
18
b1 2
b100 1
b11 7
0c
#350
022
#355
122
b0 20
b1000000000110 5
sNONE/0 13
sNONE/0 10
sNONE/0 11
b1000 f
08
b0 2
b0 1
b0 7
1c
#360
022
#365
122
sABA/27 21
b1000000000110 1c
b1000000000110 18
b1 20
b1111110 0
sADD/1 13
sA/1 10
b10 12
b1000000000111 4
sB/2 11
b0 f
18
b1 2
b100 1
b101 7
0c
#370
022
#375
122
b101 14
b0 20
b1000000000111 5
sNONE/0 13
sNONE/0 10
b101 1
b0 12
sNONE/0 11
b1000 f
08
b0 2
b0 1
b0 7
1c
#379
022
#384
122
sJMP_EXT/126 21
b1000000000111 1c
b1000000000111 18
b1 20
b0 5
b10000 0
b1000000001000 4
06
b101000 f
#389
022
#394
122
b1000000001000 1c
b1000000001000 18
b10 20
b1000000010000 5
b100 0
b1000000001001 4
16
b0 f
b1000000000100 5
#399
022
#404
122
b1000000000100 1c
b1000000000100 18
b0 20
b1000000001001 5
b10001 0
b1000000000101 4
b1000 f
b1000000000101 5
#409
022
#414
122
sCBA/17 21
b1000000000101 1c
b1000000000101 18
b1 20
b11011 0
sSUB/2 13
sA/1 10
b1000000000110 4
sB/2 11
b0 f
18
b1 2
b101 1
b100 7
0c
#419
022
#424
122
b0 20
b1000000000110 5
sNONE/0 13
sNONE/0 10
sNONE/0 11
b1000 f
08
b0 2
b0 1
b0 7
1c
#429
022
#434
122
sABA/27 21
b1000000000110 1c
b1000000000110 18
b1 20
b1111110 0
sADD/1 13
sA/1 10
b10 12
b1000000000111 4
sB/2 11
b0 f
18
b1 2
b101 1
b110 7
0c
#439
022
#444
122
b110 14
b0 20
b1000000000111 5
sNONE/0 13
sNONE/0 10
b110 1
b0 12
sNONE/0 11
b1000 f
08
b0 2
b0 1
b0 7
1c
#449
022
#454
122
sJMP_EXT/126 21
b1000000000111 1c
b1000000000111 18
b1 20
b0 5
b10000 0
b1000000001000 4
06
b101000 f
#459
022
#464
122
b1000000001000 1c
b1000000001000 18
b10 20
b1000000010000 5
b100 0
b1000000001001 4
16
b0 f
b1000000000100 5
#469
022
#474
122
b1000000000100 1c
b1000000000100 18
b0 20
b1000000001001 5
b10001 0
b1000000000101 4
b1000 f
b1000000000101 5
#479
022
#484
122
sCBA/17 21
b1000000000101 1c
b1000000000101 18
b1 20
b11011 0
sSUB/2 13
sA/1 10
b1000000000110 4
sB/2 11
b0 f
18
b1 2
b110 1
b101 7
0c
#489
022
#494
122
b0 20
b1000000000110 5
sNONE/0 13
sNONE/0 10
sNONE/0 11
b1000 f
08
b0 2
b0 1
b0 7
1c
#499
022
#504
122
sABA/27 21
b1000000000110 1c
b1000000000110 18
b1 20
b1111110 0
sADD/1 13
sA/1 10
b10 12
b1000000000111 4
sB/2 11
b0 f
18
b1 2
b110 1
b111 7
0c
#509
022
#514
122
b111 14
b0 20
b1000000000111 5
sNONE/0 13
sNONE/0 10
b111 1
b0 12
sNONE/0 11
b1000 f
08
b0 2
b0 1
b0 7
1c
#519
022
#524
122
sJMP_EXT/126 21
b1000000000111 1c
b1000000000111 18
b1 20
b0 5
b10000 0
b1000000001000 4
06
b101000 f
#529
022
#534
122
b1000000001000 1c
b1000000001000 18
b10 20
b1000000010000 5
b100 0
b1000000001001 4
16
b0 f
b1000000000100 5
#539
022
#544
122
b1000000000100 1c
b1000000000100 18
b0 20
b1000000001001 5
b10001 0
b1000000000101 4
b1000 f
b1000000000101 5
#549
022
#554
122
sCBA/17 21
b1000000000101 1c
b1000000000101 18
b1 20
b11011 0
sSUB/2 13
sA/1 10
b1000000000110 4
sB/2 11
b0 f
18
b1 2
b111 1
b110 7
0c
#559
022
#564
122
b0 20
b1000000000110 5
sNONE/0 13
sNONE/0 10
sNONE/0 11
b1000 f
08
b0 2
b0 1
b0 7
1c
#569
022
#574
122
sABA/27 21
b1000000000110 1c
b1000000000110 18
b1 20
b1111110 0
sADD/1 13
sA/1 10
b10 12
b1000000000111 4
sB/2 11
b0 f
18
b1 2
b111 1
b1000 7
0c
#579
022
#584
122
b1000 14
b0 20
b1000000000111 5
sNONE/0 13
sNONE/0 10
b1000 1
b0 12
sNONE/0 11
b1000 f
08
b0 2
b0 1
b0 7
1c
#589
022
#594
122
sJMP_EXT/126 21
b1000000000111 1c
b1000000000111 18
b1 20
b0 5
b10000 0
b1000000001000 4
06
b101000 f
#599
022
#604
122
b1000000001000 1c
b1000000001000 18
b10 20
b1000000010000 5
b100 0
b1000000001001 4
16
b0 f
b1000000000100 5
#609
022
#614
122
b1000000000100 1c
b1000000000100 18
b0 20
b1000000001001 5
b10001 0
b1000000000101 4
b1000 f
b1000000000101 5
#619
022
#624
122
sCBA/17 21
b1000000000101 1c
b1000000000101 18
b1 20
b11011 0
sSUB/2 13
sA/1 10
b1000000000110 4
sB/2 11
b0 f
18
b1 2
b1000 1
b111 7
0c
#629
022
#634
122
b0 20
b1000000000110 5
sNONE/0 13
sNONE/0 10
sNONE/0 11
b1000 f
08
b0 2
b0 1
b0 7
1c
#639
022
#644
122
sABA/27 21
b1000000000110 1c
b1000000000110 18
b1 20
b1111110 0
sADD/1 13
sA/1 10
b10 12
b1000000000111 4
sB/2 11
b0 f
18
b1 2
b1000 1
b1001 7
0c
#649
022
#654
122
b1001 14
b0 20
b1000000000111 5
sNONE/0 13
sNONE/0 10
b1001 1
b0 12
sNONE/0 11
b1000 f
08
b0 2
b0 1
b0 7
1c
#659
022
#664
122
sJMP_EXT/126 21
b1000000000111 1c
b1000000000111 18
b1 20
b0 5
b10000 0
b1000000001000 4
06
b101000 f
#669
022
#674
122
b1000000001000 1c
b1000000001000 18
b10 20
b1000000010000 5
b100 0
b1000000001001 4
16
b0 f
b1000000000100 5
#679
022
#684
122
b1000000000100 1c
b1000000000100 18
b0 20
b1000000001001 5
b10001 0
b1000000000101 4
b1000 f
b1000000000101 5
#689
022
#694
122
sCBA/17 21
b1000000000101 1c
b1000000000101 18
b1 20
b11011 0
sSUB/2 13
sA/1 10
b1000000000110 4
sB/2 11
b0 f
18
b1 2
b1001 1
b1000 7
0c
#699
022
#704
122
b0 20
b1000000000110 5
sNONE/0 13
sNONE/0 10
sNONE/0 11
b1000 f
08
b0 2
b0 1
b0 7
1c
#709
022
#714
122
sABA/27 21
b1000000000110 1c
b1000000000110 18
b1 20
b1111110 0
sADD/1 13
sA/1 10
b10 12
b1000000000111 4
sB/2 11
b0 f
18
b1 2
b1001 1
b1010 7
0c
#719
022
#724
122
b1010 14
b0 20
b1000000000111 5
sNONE/0 13
sNONE/0 10
b1010 1
b0 12
sNONE/0 11
b1000 f
08
b0 2
b0 1
b0 7
1c
#729
022
#734
122
sJMP_EXT/126 21
b1000000000111 1c
b1000000000111 18
b1 20
b0 5
b10000 0
b1000000001000 4
06
b101000 f
#739
022
#744
122
b1000000001000 1c
b1000000001000 18
b10 20
b1000000010000 5
b100 0
b1000000001001 4
16
b0 f
b1000000000100 5
#749
022
#754
122
b1000000000100 1c
b1000000000100 18
b0 20
b1000000001001 5
b10001 0
b1000000000101 4
b1000 f
b1000000000101 5
#759
022
#764
122
sCBA/17 21
b1000000000101 1c
b1000000000101 18
b1 20
b11011 0
sSUB/2 13
sA/1 10
b1000000000110 4
sB/2 11
b0 f
18
b1 2
b1010 1
b1001 7
0c
#769
022
#774
122
b0 20
b1000000000110 5
sNONE/0 13
sNONE/0 10
sNONE/0 11
b1000 f
08
b0 2
b0 1
b0 7
1c
#779
022
#784
122
sABA/27 21
b1000000000110 1c
b1000000000110 18
b1 20
b1111110 0
sADD/1 13
sA/1 10
b10 12
b1000000000111 4
sB/2 11
b0 f
18
b1 2
b1010 1
b1011 7
0c
#789
022
#794
122
b1011 14
b0 20
b1000000000111 5
sNONE/0 13
sNONE/0 10
b1011 1
b0 12
sNONE/0 11
b1000 f
08
b0 2
b0 1
b0 7
1c
#799
022
#804
122
sJMP_EXT/126 21
b1000000000111 1c
b1000000000111 18
b1 20
b0 5
b10000 0
b1000000001000 4
06
b101000 f
#809
022
#814
122
b1000000001000 1c
b1000000001000 18
b10 20
b1000000010000 5
b100 0
b1000000001001 4
16
b0 f
b1000000000100 5
#819
022
#824
122
b1000000000100 1c
b1000000000100 18
b0 20
b1000000001001 5
b10001 0
b1000000000101 4
b1000 f
b1000000000101 5
#829
022
#834
122
sCBA/17 21
b1000000000101 1c
b1000000000101 18
b1 20
b11011 0
sSUB/2 13
sA/1 10
b1000000000110 4
sB/2 11
b0 f
18
b1 2
b1011 1
b1010 7
0c
#839
022
#844
122
b0 20
b1000000000110 5
sNONE/0 13
sNONE/0 10
sNONE/0 11
b1000 f
08
b0 2
b0 1
b0 7
1c
#849
022
#854
122
sABA/27 21
b1000000000110 1c
b1000000000110 18
b1 20
b1111110 0
sADD/1 13
sA/1 10
b10 12
b1000000000111 4
sB/2 11
b0 f
18
b1 2
b1011 1
b1100 7
0c
#859
022
#864
122
b1100 14
b0 20
b1000000000111 5
sNONE/0 13
sNONE/0 10
b1100 1
b0 12
sNONE/0 11
b1000 f
08
b0 2
b0 1
b0 7
1c
#869
022
#874
122
sJMP_EXT/126 21
b1000000000111 1c
b1000000000111 18
b1 20
b0 5
b10000 0
b1000000001000 4
06
b101000 f
#879
022
#884
122
b1000000001000 1c
b1000000001000 18
b10 20
b1000000010000 5
b100 0
b1000000001001 4
16
b0 f
b1000000000100 5
#889
022
#894
122
b1000000000100 1c
b1000000000100 18
b0 20
b1000000001001 5
b10001 0
b1000000000101 4
b1000 f
b1000000000101 5
#899
022
#904
122
sCBA/17 21
b1000000000101 1c
b1000000000101 18
b1 20
b11011 0
sSUB/2 13
sA/1 10
b1000000000110 4
sB/2 11
b0 f
18
b1 2
b1100 1
b1011 7
0c
#909
022
#914
122
b0 20
b1000000000110 5
sNONE/0 13
sNONE/0 10
sNONE/0 11
b1000 f
08
b0 2
b0 1
b0 7
1c
#919
022
#924
122
sABA/27 21
b1000000000110 1c
b1000000000110 18
b1 20
b1111110 0
sADD/1 13
sA/1 10
b10 12
b1000000000111 4
sB/2 11
b0 f
18
b1 2
b1100 1
b1101 7
0c
#929
022
#934
122
b1101 14
b0 20
b1000000000111 5
sNONE/0 13
sNONE/0 10
b1101 1
b0 12
sNONE/0 11
b1000 f
08
b0 2
b0 1
b0 7
1c
#939
022
#944
122
sJMP_EXT/126 21
b1000000000111 1c
b1000000000111 18
b1 20
b0 5
b10000 0
b1000000001000 4
06
b101000 f
#949
022
#954
122
b1000000001000 1c
b1000000001000 18
b10 20
b1000000010000 5
b100 0
b1000000001001 4
16
b0 f
b1000000000100 5
#959
022
#964
122
b1000000000100 1c
b1000000000100 18
b0 20
b1000000001001 5
b10001 0
b1000000000101 4
b1000 f
b1000000000101 5
#969
022
#974
122
sCBA/17 21
b1000000000101 1c
b1000000000101 18
b1 20
b11011 0
sSUB/2 13
sA/1 10
b1000000000110 4
sB/2 11
b0 f
18
b1 2
b1101 1
b1100 7
0c
#979
022
#984
122
b0 20
b1000000000110 5
sNONE/0 13
sNONE/0 10
sNONE/0 11
b1000 f
08
b0 2
b0 1
b0 7
1c
#989
022
#994
122
sABA/27 21
b1000000000110 1c
b1000000000110 18
b1 20
b1111110 0
sADD/1 13
sA/1 10
b10 12
b1000000000111 4
sB/2 11
b0 f
18
b1 2
b1101 1
b1110 7
0c
#999
022
#1004
122
b1110 14
b0 20
b1000000000111 5
sNONE/0 13
sNONE/0 10
b1110 1
b0 12
sNONE/0 11
b1000 f
08
b0 2
b0 1
b0 7
1c
#1009
022
#1014
122
sJMP_EXT/126 21
b1000000000111 1c
b1000000000111 18
b1 20
b0 5
b10000 0
b1000000001000 4
06
b101000 f
#1019
022
#1024
122
b1000000001000 1c
b1000000001000 18
b10 20
b1000000010000 5
b100 0
b1000000001001 4
16
b0 f
b1000000000100 5
#1029
022
#1034
122
b1000000000100 1c
b1000000000100 18
b0 20
b1000000001001 5
b10001 0
b1000000000101 4
b1000 f
b1000000000101 5
#1039
022
#1044
122
sCBA/17 21
b1000000000101 1c
b1000000000101 18
b1 20
b11011 0
sSUB/2 13
sA/1 10
b1000000000110 4
sB/2 11
b0 f
18
b1 2
b1110 1
b1101 7
0c
#1049
022
#1054
122
b0 20
b1000000000110 5
sNONE/0 13
sNONE/0 10
sNONE/0 11
b1000 f
08
b0 2
b0 1
b0 7
1c
#1059
022
#1064
122
sABA/27 21
b1000000000110 1c
b1000000000110 18
b1 20
b1111110 0
sADD/1 13
sA/1 10
b10 12
b1000000000111 4
sB/2 11
b0 f
18
b1 2
b1110 1
b1111 7
0c
